Regiao;Estado;UF;Governador;TotalCasos;TotalObitos
Norte;Amapá;AP;ANTONIO WALDEZ GÓES DA SILVA;47935;704
Centro-Oeste;Mato Grosso;MT;MAURO MENDES FERREIRA;121145;3372
Sudeste;Rio de Janeiro;RJ;WILSON JOSÉ WITZEL;262006;18291
Norte;Tocantins;TO;MAURO CARLESSE;66865;922
